<?xml version="1.0" encoding="UTF-8" standalone="no"?>
<!-- Created with Inkscape (http://www.inkscape.org/) -->

<svg
   xmlns:dc="http://purl.org/dc/elements/1.1/"
   xmlns:cc="http://creativecommons.org/ns#"
   xmlns:rdf="http://www.w3.org/1999/02/22-rdf-syntax-ns#"
   xmlns:svg="http://www.w3.org/2000/svg"
   xmlns="http://www.w3.org/2000/svg"
   xmlns:sodipodi="http://sodipodi.sourceforge.net/DTD/sodipodi-0.dtd"
   xmlns:inkscape="http://www.inkscape.org/namespaces/inkscape"
   width="207"
   height="207"
   id="svg2"
   version="1.1"
   inkscape:version="0.48.4 r9939"
   sodipodi:docname="hack.svg"
   inkscape:export-filename="/home/asap/workspace/peerscommunity/root/media/hack.png"
   inkscape:export-xdpi="98.663101"
   inkscape:export-ydpi="98.663101">
  <defs
     id="defs4" />
  <sodipodi:namedview
     id="base"
     pagecolor="#ffffff"
     bordercolor="#666666"
     borderopacity="1.0"
     inkscape:pageopacity="0.0"
     inkscape:pageshadow="2"
     inkscape:zoom="2.8284271"
     inkscape:cx="56.194066"
     inkscape:cy="142.00867"
     inkscape:document-units="px"
     inkscape:current-layer="g3220"
     showgrid="false"
     fit-margin-top="10"
     fit-margin-left="10"
     fit-margin-right="10"
     fit-margin-bottom="10"
     inkscape:window-width="1594"
     inkscape:window-height="945"
     inkscape:window-x="96"
     inkscape:window-y="108"
     inkscape:window-maximized="0"
     inkscape:snap-bbox="false" />
  <metadata
     id="metadata7">
    <rdf:RDF>
      <cc:Work
         rdf:about="">
        <dc:format>image/svg+xml</dc:format>
        <dc:type
           rdf:resource="http://purl.org/dc/dcmitype/StillImage" />
        <dc:title></dc:title>
      </cc:Work>
    </rdf:RDF>
  </metadata>
  <g
     inkscape:label="kassa"
     inkscape:groupmode="layer"
     id="layer1"
     transform="translate(-6.5,-8.862183)"
     style="display:none">
    <path
       style="fill:#000000"
       d="m 16.5,177.36218 0,-28.5 28.5,0 28.5,0 0,28.5 0,28.5 -28.5,0 -28.5,0 0,-28.5 z m 55,0 0,-26.5 -26.5,0 -26.5,0 0,26.5 0,26.5 26.5,0 26.5,0 0,-26.5 z m 10,0 0,-28.5 28.5,0 28.5,0 0,28.5 0,28.5 -28.5,0 -28.5,0 0,-28.5 z m 55,0 0,-26.5 -26.5,0 -26.5,0 0,26.5 0,26.5 26.5,0 26.5,0 0,-26.5 z m 10,0 0,-28.5 28.5,0 28.5,0 0,28.5 0,28.5 -28.5,0 -28.5,0 0,-28.5 z m 55,0 0,-26.5 -26.5,0 -26.5,0 0,26.5 0,26.5 26.5,0 26.5,0 0,-26.5 z m -55,-65 0,-28.499997 28.5,0 28.5,0 0,28.499997 0,28.5 -28.5,0 -28.5,0 0,-28.5 z m 55,0 0,-26.499997 -26.5,0 -26.5,0 0,26.499997 0,26.5 26.5,0 26.5,0 0,-26.5 z m -119,-64.999997 0,-28.5 28.5,0 28.5,0 0,28.5 0,28.5 -28.5,0 -28.5,0 0,-28.5 z m 55,0 0,-26.5 -26.5,0 -26.5,0 0,26.5 0,26.5 26.5,0 26.5,0 0,-26.5 z"
       id="path3050"
       inkscape:connector-curvature="0" />
    <path
       style="fill:#ffffff"
       d="m 84.776037,47.529321 0,-26.25 26.250003,0 26.25,0 0,26.25 0,26.25 -26.25,0 -26.250003,0 0,-26.25 z"
       id="path3053"
       inkscape:connector-curvature="0" />
  </g>
  <g
     inkscape:groupmode="layer"
     id="layer2"
     inkscape:label="fillDefault"
     style="display:none"
     transform="translate(-6.5,-8.862183)">
    <path
       style="fill:#000000;fill-opacity:1"
       d="m 82.831493,47.087379 0,-27.752602 27.929387,0 27.92937,0 0,27.752602 0,27.752602 -27.92937,0 -27.929387,0 0,-27.752602 z"
       id="path3055"
       inkscape:connector-curvature="0" />
    <path
       style="fill:#000000;fill-opacity:1"
       d="m 147.1831,112.13872 0,-27.752606 27.92939,0 27.92937,0 0,27.752606 0,27.7526 -27.92937,0 -27.92939,0 0,-27.7526 z"
       id="path3055-5"
       inkscape:connector-curvature="0" />
    <path
       style="fill:#000000;fill-opacity:1"
       d="m 147.07955,176.96398 0,-27.7526 27.92939,0 27.92937,0 0,27.7526 0,27.7526 -27.92937,0 -27.92939,0 0,-27.7526 z"
       id="path3055-3"
       inkscape:connector-curvature="0" />
    <path
       style="fill:#000000;fill-opacity:1"
       d="m 82.254278,177.23544 0,-27.75261 27.929392,0 27.92937,0 0,27.75261 0,27.7526 -27.92937,0 -27.929392,0 0,-27.7526 z"
       id="path3055-1"
       inkscape:connector-curvature="0" />
    <path
       style="fill:#000000;fill-opacity:1"
       d="m 16.950456,177.06754 0,-27.7526 27.929384,0 27.92937,0 0,27.7526 0,27.75261 -27.92937,0 -27.929384,0 0,-27.75261 z"
       id="path3055-35"
       inkscape:connector-curvature="0" />
  </g>
  <g
     inkscape:label="rainbow"
     inkscape:groupmode="layer"
     id="g3220"
     transform="translate(-6.5,-8.862183)"
     style="display:inline">
    <path
       style="fill:#000000"
       d="m 16.5,177.36218 0,-28.5 28.5,0 28.5,0 0,28.5 0,28.5 -28.5,0 -28.5,0 0,-28.5 z m 55,0 0,-26.5 -26.5,0 -26.5,0 0,26.5 0,26.5 26.5,0 26.5,0 0,-26.5 z m 10,0 0,-28.5 28.5,0 28.5,0 0,28.5 0,28.5 -28.5,0 -28.5,0 0,-28.5 z m 55,0 0,-26.5 -26.5,0 -26.5,0 0,26.5 0,26.5 26.5,0 26.5,0 0,-26.5 z m 10,0 0,-28.5 28.5,0 28.5,0 0,28.5 0,28.5 -28.5,0 -28.5,0 0,-28.5 z m 55,0 0,-26.5 -26.5,0 -26.5,0 0,26.5 0,26.5 26.5,0 26.5,0 0,-26.5 z m -55,-65 0,-28.499997 28.5,0 28.5,0 0,28.499997 0,28.5 -28.5,0 -28.5,0 0,-28.5 z m 55,0 0,-26.499997 -26.5,0 -26.5,0 0,26.499997 0,26.5 26.5,0 26.5,0 0,-26.5 z m -119,-64.999997 0,-28.5 28.5,0 28.5,0 0,28.5 0,28.5 -28.5,0 -28.5,0 0,-28.5 z m 55,0 0,-26.5 -26.5,0 -26.5,0 0,26.5 0,26.5 26.5,0 26.5,0 0,-26.5 z"
       id="path3222"
       inkscape:connector-curvature="0" />
    <path
       style="fill:#ffffff"
       d="m 84.776037,47.529321 0,-26.25 26.250003,0 26.25,0 0,26.25 0,26.25 -26.25,0 -26.250003,0 0,-26.25 z"
       id="path3224"
       inkscape:connector-curvature="0" />
    <g
       id="g3011"
       transform="matrix(0.07104796,0,0,0.11359741,83.372287,19.598726)">
      <g
         id="g3008">
        <rect
           height="480"
           width="777"
           id="rect4"
           x="0"
           y="0"
           style="fill:#750787" />
      </g>
      <rect
         id="rect6"
         width="777"
         height="400"
         x="0"
         y="0"
         style="fill:#004dff" />
      <rect
         id="rect8"
         width="777"
         height="320"
         x="0"
         y="0"
         style="fill:#008026" />
      <rect
         id="rect10"
         width="777"
         height="240"
         x="0"
         y="0"
         style="fill:#ffed00" />
      <rect
         id="rect12"
         width="777"
         height="160"
         x="0"
         y="0"
         style="fill:#ff8c00" />
      <rect
         id="rect14"
         width="777"
         height="80"
         x="0"
         y="0"
         style="fill:#e40303" />
    </g>
    <g
       style="display:inline"
       id="g3011-2"
       transform="matrix(0.07104796,0,0,0.11359741,147.18928,85.00766)">
      <g
         id="g3008-1">
        <rect
           height="480"
           width="777"
           id="rect4-1"
           x="0"
           y="0"
           style="fill:#750787" />
      </g>
      <rect
         id="rect6-0"
         width="777"
         height="400"
         x="0"
         y="0"
         style="fill:#004dff" />
      <rect
         id="rect8-6"
         width="777"
         height="320"
         x="0"
         y="0"
         style="fill:#008026" />
      <rect
         id="rect10-6"
         width="777"
         height="240"
         x="0"
         y="0"
         style="fill:#ffed00" />
      <rect
         id="rect12-8"
         width="777"
         height="160"
         x="0"
         y="0"
         style="fill:#ff8c00" />
      <rect
         id="rect14-5"
         width="777"
         height="80"
         x="0"
         y="0"
         style="fill:#e40303" />
    </g>
    <g
       style="display:inline"
       id="g3011-6"
       transform="matrix(0.07104796,0,0,0.11359741,147.54284,150.06148)">
      <g
         id="g3008-9">
        <rect
           height="480"
           width="777"
           id="rect4-9"
           x="0"
           y="0"
           style="fill:#750787" />
      </g>
      <rect
         id="rect6-08"
         width="777"
         height="400"
         x="0"
         y="0"
         style="fill:#004dff" />
      <rect
         id="rect8-1"
         width="777"
         height="320"
         x="0"
         y="0"
         style="fill:#008026" />
      <rect
         id="rect10-7"
         width="777"
         height="240"
         x="0"
         y="0"
         style="fill:#ffed00" />
      <rect
         id="rect12-2"
         width="777"
         height="160"
         x="0"
         y="0"
         style="fill:#ff8c00" />
      <rect
         id="rect14-2"
         width="777"
         height="80"
         x="0"
         y="0"
         style="fill:#e40303" />
    </g>
    <g
       style="display:inline"
       id="g3011-0"
       transform="matrix(0.07104796,0,0,0.11359741,81.781905,150.06149)">
      <g
         id="g3008-0">
        <rect
           height="480"
           width="777"
           id="rect4-2"
           x="0"
           y="0"
           style="fill:#750787" />
      </g>
      <rect
         id="rect6-9"
         width="777"
         height="400"
         x="0"
         y="0"
         style="fill:#004dff" />
      <rect
         id="rect8-5"
         width="777"
         height="320"
         x="0"
         y="0"
         style="fill:#008026" />
      <rect
         id="rect10-67"
         width="777"
         height="240"
         x="0"
         y="0"
         style="fill:#ffed00" />
      <rect
         id="rect12-3"
         width="777"
         height="160"
         x="0"
         y="0"
         style="fill:#ff8c00" />
      <rect
         id="rect14-4"
         width="777"
         height="80"
         x="0"
         y="0"
         style="fill:#e40303" />
    </g>
    <g
       style="display:inline"
       id="g3011-5"
       transform="matrix(0.07104796,0,0,0.11359741,17.081634,149.70793)">
      <g
         id="g3008-3">
        <rect
           height="480"
           width="777"
           id="rect4-4"
           x="0"
           y="0"
           style="fill:#750787" />
      </g>
      <rect
         id="rect6-7"
         width="777"
         height="400"
         x="0"
         y="0"
         style="fill:#004dff" />
      <rect
         id="rect8-0"
         width="777"
         height="320"
         x="0"
         y="0"
         style="fill:#008026" />
      <rect
         id="rect10-8"
         width="777"
         height="240"
         x="0"
         y="0"
         style="fill:#ffed00" />
      <rect
         id="rect12-9"
         width="777"
         height="160"
         x="0"
         y="0"
         style="fill:#ff8c00" />
      <rect
         id="rect14-3"
         width="777"
         height="80"
         x="0"
         y="0"
         style="fill:#e40303" />
    </g>
  </g>
  <g
     style="display:inline"
     transform="translate(-6.5,-8.862183)"
     id="g3139"
     inkscape:groupmode="layer"
     inkscape:label="kassaRainbow">
    <path
       inkscape:connector-curvature="0"
       id="path3141"
       d="m 16.5,177.36218 0,-28.5 28.5,0 28.5,0 0,28.5 0,28.5 -28.5,0 -28.5,0 0,-28.5 z m 55,0 0,-26.5 -26.5,0 -26.5,0 0,26.5 0,26.5 26.5,0 26.5,0 0,-26.5 z m 10,0 0,-28.5 28.5,0 28.5,0 0,28.5 0,28.5 -28.5,0 -28.5,0 0,-28.5 z m 55,0 0,-26.5 -26.5,0 -26.5,0 0,26.5 0,26.5 26.5,0 26.5,0 0,-26.5 z m 10,0 0,-28.5 28.5,0 28.5,0 0,28.5 0,28.5 -28.5,0 -28.5,0 0,-28.5 z m 55,0 0,-26.5 -26.5,0 -26.5,0 0,26.5 0,26.5 26.5,0 26.5,0 0,-26.5 z m -55,-65 0,-28.499997 28.5,0 28.5,0 0,28.499997 0,28.5 -28.5,0 -28.5,0 0,-28.5 z m 55,0 0,-26.499997 -26.5,0 -26.5,0 0,26.499997 0,26.5 26.5,0 26.5,0 0,-26.5 z m -119,-64.999997 0,-28.5 28.5,0 28.5,0 0,28.5 0,28.5 -28.5,0 -28.5,0 0,-28.5 z m 55,0 0,-26.5 -26.5,0 -26.5,0 0,26.5 0,26.5 26.5,0 26.5,0 0,-26.5 z"
       style="fill:#000000" />
  </g>
</svg>
